<?xml version="1.0" encoding="iso-8859-1"?>
<!-- Generator: Adobe Illustrator 19.0.0, SVG Export Plug-In . SVG Version: 6.00 Build 0)  -->
<svg version="1.1" id="Capa_1" xmlns="http://www.w3.org/2000/svg" xmlns:xlink="http://www.w3.org/1999/xlink" x="0px" y="0px"
	 viewBox="0 0 512.001 512.001" style="enable-background:new 0 0 512.001 512.001;" xml:space="preserve">
<rect x="78.102" y="4.339" style="fill:#FFA230;" width="364.475" height="321.085"/>
<path style="fill:#FA962A;" d="M78.102,252.529v72.895h364.475V131.385C323.167,209.486,173.559,240.38,78.102,252.529z"/>
<polyline style="fill:#4398D1;" points="0,507.661 60.746,507.661 60.746,394.848 0,394.848 "/>
<polyline style="fill:#3E8CC7;" points="0,507.661 60.746,507.661 60.746,455.594 0,455.594 "/>
<path style="fill:#F2BB80;" d="M491.26,386.17c-3.48,0-6.916,0.859-9.98,2.517l-108.127,58.229H229.966
	c-11.984,0-21.695-9.711-21.695-21.695s9.711-21.695,21.695-21.695h73.763c23.96,0,43.39-19.43,43.39-43.39H130.69
	c-6.092-0.043-12.08,1.545-17.356,4.599l-52.588,30.113v112.814h312.407l129.128-80.705c6.005-3.732,9.676-10.283,9.719-17.356
	v-2.517c0.095-11.455-9.112-20.818-20.567-20.914C491.372,386.17,491.32,386.17,491.26,386.17z"/>
<g>
	<rect x="399.186" y="282.034" style="fill:#126099;" width="17.356" height="17.356"/>
	<rect x="364.475" y="282.034" style="fill:#126099;" width="17.356" height="17.356"/>
	<rect x="329.763" y="282.034" style="fill:#126099;" width="17.356" height="17.356"/>
</g>
<rect x="78.102" y="4.339" style="fill:#FDB62F;" width="364.475" height="69.424"/>
<rect x="216.949" y="4.339" style="fill:#FD7B2F;" width="86.78" height="69.424"/>
<rect x="216.949" y="73.763" style="fill:#F46B27;" width="86.78" height="52.068"/>
<path style="fill:#EBB57C;" d="M491.26,386.17c-3.48,0-6.916,0.859-9.98,2.517l-108.127,58.229H229.966
	c-3.15-0.009-6.265-0.72-9.112-2.083c-52.233,14.978-105.897,24.402-160.108,28.117v34.712h312.407l129.128-80.705
	c6.005-3.732,9.676-10.283,9.719-17.356v-2.517c0.095-11.455-9.112-20.818-20.567-20.914
	C491.372,386.17,491.32,386.17,491.26,386.17z"/>
<g>
</g>
<g>
</g>
<g>
</g>
<g>
</g>
<g>
</g>
<g>
</g>
<g>
</g>
<g>
</g>
<g>
</g>
<g>
</g>
<g>
</g>
<g>
</g>
<g>
</g>
<g>
</g>
<g>
</g>
</svg>
